<?xml version="1.0" encoding="UTF-8" standalone="no"?>
<!-- Created with Inkscape (http://www.inkscape.org/) -->

<svg
   width="27.999826"
   height="27.999788"
   viewBox="0 0 7.4082874 7.4082773"
   version="1.1"
   id="svg1"
   inkscape:version="1.3 (0e150ed6c4, 2023-07-21)"
   sodipodi:docname="cfl.svg"
   xml:space="preserve"
   xmlns:inkscape="http://www.inkscape.org/namespaces/inkscape"
   xmlns:sodipodi="http://sodipodi.sourceforge.net/DTD/sodipodi-0.dtd"
   xmlns="http://www.w3.org/2000/svg"
   xmlns:svg="http://www.w3.org/2000/svg"><sodipodi:namedview
     id="namedview1"
     pagecolor="#ffffff"
     bordercolor="#000000"
     borderopacity="0.25"
     inkscape:showpageshadow="2"
     inkscape:pageopacity="0.0"
     inkscape:pagecheckerboard="0"
     inkscape:deskcolor="#d1d1d1"
     inkscape:document-units="px"
     inkscape:zoom="3.3350681"
     inkscape:cx="-19.789701"
     inkscape:cy="20.389389"
     inkscape:window-width="1920"
     inkscape:window-height="1011"
     inkscape:window-x="0"
     inkscape:window-y="0"
     inkscape:window-maximized="1"
     inkscape:current-layer="layer1"
     showgrid="false"><inkscape:grid
       id="grid6"
       units="px"
       originx="0"
       originy="0"
       spacingx="0.26458333"
       spacingy="0.26458333"
       empcolor="#0099e5"
       empopacity="0.30196078"
       color="#0099e5"
       opacity="0.14901961"
       empspacing="5"
       dotted="false"
       gridanglex="30"
       gridanglez="30"
       visible="false" /></sodipodi:namedview><defs
     id="defs1" /><g
     inkscape:label="Layer 1"
     inkscape:groupmode="layer"
     id="layer1"
     transform="translate(-105.83333,-79.904152)"><rect
       style="fill:#c41039;stroke-width:0.264581;stroke-linecap:round;stroke-linejoin:round;fill-opacity:1"
       id="rect2"
       width="7.4082875"
       height="7.4082775"
       x="105.83333"
       y="79.904152" /><g
       inkscape:label="Calque 1"
       id="layer1-8"
       transform="matrix(0.01707033,0,0,0.01707033,117.79752,85.709745)"
       style="fill:#ffffff;stroke-width:58.5812"><path
         fill-rule="nonzero"
         fill="#c41039"
         fill-opacity="1"
         d="m -408.46071,-141.30974 h -102.15373 l -46.27892,70.658093 h 41.84846 l 32.09233,-48.666393 h 34.1583 c 16.29871,0 31.49546,-8.28704 40.33356,-21.9917"
         id="path429"
         style="fill:#ffffff;stroke-width:344.263" /><path
         fill-rule="nonzero"
         fill="#c41039"
         fill-opacity="1"
         d="m -387.96127,-92.643346 53.48716,-82.916484 h -41.82548 l -67.67391,104.908183 h 121.25286 c 16.29871,0 31.49546,-8.287034 40.33339,-21.991699 z m 0,0"
         id="path431"
         style="fill:#ffffff;stroke-width:344.263" /><path
         fill-rule="nonzero"
         fill="#c41039"
         fill-opacity="1"
         d="m -642.28911,-92.643346 39.3004,-60.924784 h 175.56628 c 16.3217,0 31.49547,-8.28703 40.35655,-21.9917 h -226.89569 c -10.39898,0 -20.08648,5.27987 -25.7335,14.02601 l -43.18013,66.985257 c -6.65718,10.307193 0.73463,23.896916 13.01601,23.896916 h 102.38311 l 14.18676,-21.991699 z m 0,0"
         id="path433"
         style="fill:#ffffff;stroke-width:344.263" /></g></g></svg>
