<?xml version="1.0" encoding="UTF-8" standalone="no"?>
<!-- Created with Inkscape (http://www.inkscape.org/) -->

<svg
   width="27.999826"
   height="27.999788"
   viewBox="0 0 7.4082874 7.4082773"
   version="1.1"
   id="svg1"
   inkscape:version="1.3 (0e150ed6c4, 2023-07-21)"
   sodipodi:docname="db.svg"
   xmlns:inkscape="http://www.inkscape.org/namespaces/inkscape"
   xmlns:sodipodi="http://sodipodi.sourceforge.net/DTD/sodipodi-0.dtd"
   xmlns="http://www.w3.org/2000/svg"
   xmlns:svg="http://www.w3.org/2000/svg">
  <sodipodi:namedview
     id="namedview1"
     pagecolor="#ffffff"
     bordercolor="#000000"
     borderopacity="0.25"
     inkscape:showpageshadow="2"
     inkscape:pageopacity="0.0"
     inkscape:pagecheckerboard="0"
     inkscape:deskcolor="#d1d1d1"
     inkscape:document-units="px"
     inkscape:zoom="17.174362"
     inkscape:cx="17.438785"
     inkscape:cy="12.751566"
     inkscape:window-width="1920"
     inkscape:window-height="1011"
     inkscape:window-x="0"
     inkscape:window-y="0"
     inkscape:window-maximized="1"
     inkscape:current-layer="layer1" />
  <defs
     id="defs1" />
  <g
     inkscape:label="Layer 1"
     inkscape:groupmode="layer"
     id="layer1"
     transform="translate(-105.83333,-79.904152)">
    <rect
       style="fill:#ffffff;stroke-width:0.264581;stroke-linecap:round;stroke-linejoin:round"
       id="rect2"
       width="7.4082875"
       height="7.4082775"
       x="105.83333"
       y="79.904152" />
    <g
       id="g612-3"
       transform="matrix(0.06349997,0,0,0.06349997,106.36247,81.385792)"
       style="stroke-width:4.16667">
      <path
         class="st0"
         d="M 90,0 H 10 C 4.5,0 0,4.5 0,10 v 50 c 0,5.5 4.5,10 10,10 h 80 c 5.5,0 10,-4.5 10,-10.1 V 10 C 100,4.5 95.5,0 90,0 Z"
         id="path1-50-8"
         style="fill:#f01414;stroke-width:4.16667" />
      <path
         class="st1"
         d="m 92.7,59.9 c 0.1,1.5 -1.1,2.8 -2.7,2.9 H 10 C 8.5,62.8 7.3,61.5 7.3,60 V 10 C 7.2,8.5 8.4,7.2 9.9,7.1 H 90 c 1.5,0 2.7,1.3 2.7,2.8 z"
         id="path2-9-5"
         style="fill:#ffffff;stroke-width:4.16667" />
      <path
         class="st0"
         d="M 30.6,57.9 H 13.8 V 12.1 h 16.8 c 11.9,0 18.4,7.4 18.4,22.7 0,13.2 -4.5,23 -18.4,23.1 z m 7.3,-22.2 c 0,-9.2 -1,-16.4 -10.9,-16.4 h -2.2 v 31.2 h 3.9 c 5.8,0 9.2,-4.7 9.2,-14.8 z M 78,33.9 C 82.7,32.5 85.9,28.2 86,23.2 86,22.2 85.8,12 72.9,12 H 53.8 V 57.8 H 70 c 4.3,0 17.7,0 17.7,-12.9 0,-3.1 -1.4,-9.2 -9.7,-11 z M 64.7,19.2 h 3.5 c 4.9,0 6.9,1.7 6.9,5.5 0,3 -2.2,5.5 -6,5.5 h -4.3 v -11 z m 4.5,31.3 H 64.7 V 38.7 h 4.8 c 5.7,0 7.1,3.3 7.1,5.9 0,5.9 -5.6,5.9 -7.4,5.9 z"
         id="path3-6-6"
         style="fill:#f01414;stroke-width:4.16667" />
    </g>
  </g>
</svg>
